{
  "name":"Wf_MontageK8s",
  "processes": [
    {
      "name": "mProjectPP",
      "function": "K8sInvoke",
      "type": "dataflow",
      "firingLimit": 1,
      "config": {
        "containername": "koxu1996/montage-worker",
        "executor": {
          "executable": "sleep",
          "args": [
            "20"
          ]
        }
      },
      "ins": [
        0
      ],
      "outs": [
        1
      ]
    }
  ],
  "signals": [
    {
      "name": "0",
      "data": [
        "0"
      ]
    },
    {
      "name": 1
    }
  ],
  "ins": [
    0
  ],
  "outs": [
    1
  ]
}
